lab05-Dui-Lee
…
##   largest_height
## 1             87

#use summarise() to get the standard deviation of points3.
summarise(dat, sd_of_points3 = sd(points3))

##   sd_of_points3
## 1      55.11807

#use summarise() and group_by() to display the median of three-points, by team.
summarise(group_by(dat, team), points3_median = median(points3))

## # A tibble: 30 x 2
##    team  points3_median
##    <chr>          <dbl>
##  1 ATL             32  
##  2 BOS             46  
##  3 BRK             36  
##  4 CHI             28.5
##  5 CHO             13  
##  6 CLE             26.5
##  7 DAL             18  
##  8 DEN             46  
##  9 DET             28  
## 10 GSW             10.5
## # ... with 20 more rows
…
